…
## *Data Re-lengthening*

Now that we’ve performed our desired analysis on the widened subset of
the `gapminder` dataset, let’s re-lengthen it back to its original form.

``` r
uni_wide %>%
  pivot_longer(cols = (-year), names_to = "country", values_to = "lifeExp")
```

    # A tibble: 24 x 3
        year country  lifeExp
       <int> <chr>      <dbl>
     1  1952 Cambodia    39.4
     2  1952 Canada      68.8
     3  1957 Cambodia    41.4
     4  1957 Canada      70.0
     5  1962 Cambodia    43.4
     6  1962 Canada      71.3
     7  1967 Cambodia    45.4
     8  1967 Canada      72.1
     9  1972 Cambodia    40.3
    10  1972 Canada      72.9
    # ... with 14 more rows
…
## *Data Re-lengthening*

Now, suppose we want to re-lengthen our widened data back to its
original form.

``` r
multi_wide %>%
  pivot_longer(cols = (-year), names_to = c(".value", "country"), names_sep = "_")
```

    # A tibble: 24 x 4
        year country   lifeExp gdpPercap
       <int> <chr>       <dbl>     <dbl>
     1  1952 Australia    69.1    10040.
     2  1952 Sweden       71.9     8528.
     3  1957 Australia    70.3    10950.
     4  1957 Sweden       72.5     9912.
     5  1962 Australia    70.9    12217.
     6  1962 Sweden       73.4    12329.
     7  1967 Australia    71.1    14526.
     8  1967 Sweden       74.2    15258.
     9  1972 Australia    71.9    16789.
    10  1972 Sweden       74.7    17832.
    # ... with 14 more rows
…
# Exercise 3: Table Joins

In this exercise, we will be using guestlist and email address tibbles
found on Github. Let’s first load these tibbles into our working
environment - we will name the guestlist tibble `guest` and the email
address tibble `email`.

``` r
(guest <- read_csv("https://raw.githubusercontent.com/STAT545-UBC/Classroom/master/data/wedding/attend.csv"))
```

    # A tibble: 30 x 7
       party name  meal_wedding meal_brunch attendance_wedd~ attendance_brun~
       <dbl> <chr> <chr>        <chr>       <chr>            <chr>           
     1     1 Somm~ PENDING      PENDING     PENDING          PENDING         
     2     1 Phil~ vegetarian   Menu C      CONFIRMED        CONFIRMED       
     3     1 Blan~ chicken      Menu A      CONFIRMED        CONFIRMED       
     4     1 Emaa~ PENDING      PENDING     PENDING          PENDING         
     5     2 Blai~ chicken      Menu C      CONFIRMED        CONFIRMED       
     6     2 Nige~ <NA>         <NA>        CANCELLED        CANCELLED       
     7     3 Sine~ PENDING      PENDING     PENDING          PENDING         
     8     4 Ayra~ vegetarian   Menu B      PENDING          PENDING         
     9     5 Atla~ PENDING      PENDING     PENDING          PENDING         
    10     5 Denz~ fish         Menu B      CONFIRMED        CONFIRMED       
    # ... with 20 more rows, and 1 more variable: attendance_golf <chr>
…
``` r
(email <- email %>% 
  separate_rows(guest, sep = ", ") %>%
  rename("name" = guest))
```

    # A tibble: 28 x 2
       name            email              
       <chr>           <chr>              
     1 Sommer Medrano  sommm@gmail.com    
     2 Phillip Medrano sommm@gmail.com    
     3 Blanka Medrano  sommm@gmail.com    
     4 Emaan Medrano   sommm@gmail.com    
     5 Blair Park      bpark@gmail.com    
     6 Nigel Webb      bpark@gmail.com    
     7 Sinead English  singlish@hotmail.ca
     8 Ayra Marks      marksa42@gmail.com 
     9 Jolene Welsh    jw1987@hotmail.com 
    10 Hayley Booker   jw1987@hotmail.com 
    # ... with 18 more rows

``` r
guest %>%
  left_join(email, by = "name")
```

    # A tibble: 30 x 8
       party name  meal_wedding meal_brunch attendance_wedd~ attendance_brun~
       <dbl> <chr> <chr>        <chr>       <chr>            <chr>           
     1     1 Somm~ PENDING      PENDING     PENDING          PENDING         
     2     1 Phil~ vegetarian   Menu C      CONFIRMED        CONFIRMED       
     3     1 Blan~ chicken      Menu A      CONFIRMED        CONFIRMED       
     4     1 Emaa~ PENDING      PENDING     PENDING          PENDING         
     5     2 Blai~ chicken      Menu C      CONFIRMED        CONFIRMED       
     6     2 Nige~ <NA>         <NA>        CANCELLED        CANCELLED       
     7     3 Sine~ PENDING      PENDING     PENDING          PENDING         
     8     4 Ayra~ vegetarian   Menu B      PENDING          PENDING         
     9     5 Atla~ PENDING      PENDING     PENDING          PENDING         
    10     5 Denz~ fish         Menu B      CONFIRMED        CONFIRMED       
    # ... with 20 more rows, and 2 more variables: attendance_golf <chr>,
    #   email <chr>
…
## *3.3 -`full_join`*

Now that we are aware of this discrepancy between the two tibbles, let’s
make a master list containing all guests who we have emails for, in
addition to those on the guestlist.

``` r
guest %>%
  full_join(email, by = "name")
```

    # A tibble: 33 x 8
       party name  meal_wedding meal_brunch attendance_wedd~ attendance_brun~
       <dbl> <chr> <chr>        <chr>       <chr>            <chr>           
     1     1 Somm~ PENDING      PENDING     PENDING          PENDING         
     2     1 Phil~ vegetarian   Menu C      CONFIRMED        CONFIRMED       
     3     1 Blan~ chicken      Menu A      CONFIRMED        CONFIRMED       
     4     1 Emaa~ PENDING      PENDING     PENDING          PENDING         
     5     2 Blai~ chicken      Menu C      CONFIRMED        CONFIRMED       
     6     2 Nige~ <NA>         <NA>        CANCELLED        CANCELLED       
     7     3 Sine~ PENDING      PENDING     PENDING          PENDING         
     8     4 Ayra~ vegetarian   Menu B      PENDING          PENDING         
     9     5 Atla~ PENDING      PENDING     PENDING          PENDING         
    10     5 Denz~ fish         Menu B      CONFIRMED        CONFIRMED       
    # ... with 23 more rows, and 2 more variables: attendance_golf <chr>,
    #   email <chr>
…
