…
Suppose we want to look at all the countries that have ever experienced
a drop in life expectancy between 1952 and 2007. Let’s define a new
variable `lifeExp_change`, equaling the difference between life
expectancy at one time point and life expectancy at the time point
before (5 years earlier).

``` r
gapminder %>%
  group_by(country) %>%
  arrange(year) %>%
  mutate(lifeExp_change = lifeExp - lag(lifeExp)) %>%
  filter(lifeExp_change < 0)
```

    # A tibble: 102 x 7
    # Groups:   country [52]
       country        continent  year lifeExp      pop gdpPercap lifeExp_change
       <fct>          <fct>     <int>   <dbl>    <int>     <dbl>          <dbl>
     1 China          Asia       1962    44.5   6.66e8      488.        -6.05  
     2 Cambodia       Asia       1972    40.3   7.45e6      422.        -5.10  
     3 Czech Republic Europe     1972    70.3   9.86e6    13108.        -0.0900
     4 Netherlands    Europe     1972    73.8   1.33e7    18795.        -0.0700
     5 Slovak Republ~ Europe     1972    70.4   4.59e6     9674.        -0.63  
     6 Bulgaria       Europe     1977    70.8   8.80e6     7612.        -0.09  
     7 Cambodia       Asia       1977    31.2   6.98e6      525.        -9.10  
     8 El Salvador    Americas   1977    56.7   4.28e6     5139.        -1.51  
     9 Poland         Europe     1977    70.7   3.46e7     9508.        -0.180 
    10 Uganda         Africa     1977    50.4   1.15e7      844.        -0.666 
    # ... with 92 more rows
…
## *1.4 - Slicing*

Now, let’s filter the `gapminder` dataset to show the maximum GDP per
capita experienced by each country.

``` r
gapminder %>%
  select(country, year, gdpPercap) %>%
  group_by(country) %>%
  mutate(max_gdpPercap = max(gdpPercap)) %>%
  filter(max_gdpPercap == gdpPercap) %>%
  select(country, year, max_gdpPercap)
```

    # A tibble: 142 x 3
    # Groups:   country [142]
       country      year max_gdpPercap
       <fct>       <int>         <dbl>
     1 Afghanistan  1982          978.
     2 Albania      2007         5937.
     3 Algeria      2007         6223.
     4 Angola       1967         5523.
     5 Argentina    2007        12779.
     6 Australia    2007        34435.
     7 Austria      2007        36126.
     8 Bahrain      2007        29796.
     9 Bangladesh   2007         1391.
    10 Belgium      2007        33693.
    # ... with 132 more rows
…
``` r
gapminder %>%
  group_by(year) %>%
  count(continent) %>%
  rename(country_count = n)
```

    # A tibble: 60 x 3
    # Groups:   year [12]
        year continent country_count
       <int> <fct>             <int>
     1  1952 Africa               52
     2  1952 Americas             25
     3  1952 Asia                 33
     4  1952 Europe               30
     5  1952 Oceania               2
     6  1957 Africa               52
     7  1957 Americas             25
     8  1957 Asia                 33
     9  1957 Europe               30
    10  1957 Oceania               2
    # ... with 50 more rows
…
To correctly obtain all data from Rwanda and Afghanistan, we can use the
logical “or” operator (denoted as “|” in `dplyr`). The code below will
return a dataframe that contains all observations from both Rwanda and
Afghanistan.

``` r
filter(gapminder, country == "Rwanda" | country == "Afghanistan")
```

    # A tibble: 24 x 6
       country     continent  year lifeExp      pop gdpPercap
       <fct>       <fct>     <int>   <dbl>    <int>     <dbl>
     1 Afghanistan Asia       1952    28.8  8425333      779.
     2 Afghanistan Asia       1957    30.3  9240934      821.
     3 Afghanistan Asia       1962    32.0 10267083      853.
     4 Afghanistan Asia       1967    34.0 11537966      836.
     5 Afghanistan Asia       1972    36.1 13079460      740.
     6 Afghanistan Asia       1977    38.4 14880372      786.
     7 Afghanistan Asia       1982    39.9 12881816      978.
     8 Afghanistan Asia       1987    40.8 13867957      852.
     9 Afghanistan Asia       1992    41.7 16317921      649.
    10 Afghanistan Asia       1997    41.8 22227415      635.
    # ... with 14 more rows
…
