…
As our first task, suppose we want to determine the absolute abundance
of countries with low life expectancy over time by continent (**task
option 1**). We will define low life expectancy to be below the global
mean life expectancy for that year. Let’s proceed through this task
step-by-step.

``` r
gapminder %>%
  select(continent, country, year, lifeExp) %>%
  group_by(year) %>%
  mutate(mean_lifeExp = mean(lifeExp))
```

    # A tibble: 1,704 x 5
    # Groups:   year [12]
       continent country      year lifeExp mean_lifeExp
       <fct>     <fct>       <int>   <dbl>        <dbl>
     1 Asia      Afghanistan  1952    28.8         49.1
     2 Asia      Afghanistan  1957    30.3         51.5
     3 Asia      Afghanistan  1962    32.0         53.6
     4 Asia      Afghanistan  1967    34.0         55.7
     5 Asia      Afghanistan  1972    36.1         57.6
     6 Asia      Afghanistan  1977    38.4         59.6
     7 Asia      Afghanistan  1982    39.9         61.5
     8 Asia      Afghanistan  1987    40.8         63.2
     9 Asia      Afghanistan  1992    41.7         64.2
    10 Asia      Afghanistan  1997    41.8         65.0
    # ... with 1,694 more rows
…
``` r
gapminder %>%
  select(continent, country, year, lifeExp) %>%
  group_by(year) %>%
  mutate(mean_lifeExp = mean(lifeExp)) %>%
  group_by(continent) %>%
  filter(lifeExp < mean_lifeExp) 
```

    # A tibble: 824 x 5
    # Groups:   continent [4]
       continent country      year lifeExp mean_lifeExp
       <fct>     <fct>       <int>   <dbl>        <dbl>
     1 Asia      Afghanistan  1952    28.8         49.1
     2 Asia      Afghanistan  1957    30.3         51.5
     3 Asia      Afghanistan  1962    32.0         53.6
     4 Asia      Afghanistan  1967    34.0         55.7
     5 Asia      Afghanistan  1972    36.1         57.6
     6 Asia      Afghanistan  1977    38.4         59.6
     7 Asia      Afghanistan  1982    39.9         61.5
     8 Asia      Afghanistan  1987    40.8         63.2
     9 Asia      Afghanistan  1992    41.7         64.2
    10 Asia      Afghanistan  1997    41.8         65.0
    # ... with 814 more rows
…
``` r
gapminder %>%
  select(continent, country, year, lifeExp) %>%
  group_by(year) %>%
  mutate(mean_lifeExp = mean(lifeExp)) %>%
  group_by(continent) %>%
  filter(lifeExp < mean_lifeExp) %>%
  group_by(year) %>%
  count(continent) %>%
  mutate("number of countries" = n) %>%
  select(year, continent, "number of countries")
```

    # A tibble: 44 x 3
    # Groups:   year [12]
        year continent `number of countries`
       <int> <fct>                     <int>
     1  1952 Africa                       50
     2  1952 Americas                      9
     3  1952 Asia                         22
     4  1952 Europe                        1
     5  1957 Africa                       50
     6  1957 Americas                      9
     7  1957 Asia                         20
     8  1957 Europe                        1
     9  1962 Africa                       50
    10  1962 Americas                      8
    # ... with 34 more rows
…
  select(continent, country, year, lifeExp) %>%
  group_by(year) %>%
  mutate(mean_lifeExp = mean(lifeExp)) %>%
  ungroup() %>%
  group_by(year, continent) %>%
  mutate(total_count = n()) %>%
  filter(lifeExp < mean_lifeExp) %>%
  group_by(year, continent) %>%
  mutate(number_of_countries = n()) %>%
  select(continent, year, number_of_countries, total_count) %>%
  mutate(relative_abundance = (number_of_countries / total_count)*100) %>%
  distinct()
```

    # A tibble: 44 x 5
    # Groups:   year, continent [44]
       continent  year number_of_countries total_count relative_abundance
       <fct>     <int>               <int>       <int>              <dbl>
     1 Asia       1952                  22          33               66.7
     2 Asia       1957                  20          33               60.6
     3 Asia       1962                  19          33               57.6
     4 Asia       1967                  18          33               54.5
     5 Asia       1972                  18          33               54.5
     6 Asia       1977                  14          33               42.4
     7 Asia       1982                  12          33               36.4
     8 Asia       1987                  12          33               36.4
     9 Asia       1992                  11          33               33.3
    10 Asia       1997                  10          33               30.3
    # ... with 34 more rows
…
In our final task, let’s explore how life expectancy has been changing
over time in the different continents (**task option 5**). To achieve
this, we will consider the mean life expectancy of each continent at
each time point between 1952 and 2007.

``` r
gapminder %>%
  select(continent, year, lifeExp) %>%
  group_by(continent, year) %>%
  mutate(mean_lifeExp = mean(lifeExp)) %>%
  select(continent, year, mean_lifeExp) %>%
  distinct()
```

    # A tibble: 60 x 3
    # Groups:   continent, year [60]
       continent  year mean_lifeExp
       <fct>     <int>        <dbl>
     1 Asia       1952         46.3
     2 Asia       1957         49.3
     3 Asia       1962         51.6
     4 Asia       1967         54.7
     5 Asia       1972         57.3
     6 Asia       1977         59.6
     7 Asia       1982         62.6
     8 Asia       1987         64.9
     9 Asia       1992         66.5
    10 Asia       1997         68.0
    # ... with 50 more rows
…
